final_submission/uvm/sim/d.vcd
$date
	Thu Mar 14 11:00:37 2024
$end
$version
	QuestaSim Version 2023.3
$end
$timescale
	1ns
$end

$scope module uvm_root $end
$upscope $end

$scope module async_fifo1_tb_uvm $end
$var parameter 32 ! DSIZE $end
$var parameter 32 " ASIZE $end
$var parameter 32 # IDLE_R $end
$var parameter 32 $ IDLE_W $end

$scope module dut $end
$var parameter 32 % DSIZE $end
$var parameter 32 & ASIZE $end
$var reg 8 ' waddr [7:0] $end
$var reg 8 ( raddr [7:0] $end
$var reg 9 ) wptr [8:0] $end
$var reg 9 * rptr [8:0] $end
$var reg 9 + wq2_rptr [8:0] $end
$var reg 9 , rq2_wptr [8:0] $end

$scope module sync_r2w $end
$var parameter 32 - ADDRSIZE $end
$var wire 1 . wclk $end
$var wire 1 / wrst_n $end
$var wire 1 0 rptr [8] $end
$var wire 1 1 rptr [7] $end
$var wire 1 2 rptr [6] $end
$var wire 1 3 rptr [5] $end
$var wire 1 4 rptr [4] $end
$var wire 1 5 rptr [3] $end
$var wire 1 6 rptr [2] $end
$var wire 1 7 rptr [1] $end
$var wire 1 8 rptr [0] $end
$var reg 9 9 wq2_rptr [8:0] $end
$var reg 9 : wq1_rptr [8:0] $end
$upscope $end

$scope module sync_w2r $end
$var parameter 32 ; ADDRSIZE $end
$var wire 1 < rclk $end
$var wire 1 = rrst_n $end
$var wire 1 > wptr [8] $end
$var wire 1 ? wptr [7] $end
$var wire 1 @ wptr [6] $end
$var wire 1 A wptr [5] $end
$var wire 1 B wptr [4] $end
$var wire 1 C wptr [3] $end
$var wire 1 D wptr [2] $end
$var wire 1 E wptr [1] $end
$var wire 1 F wptr [0] $end
$var reg 9 G rq2_wptr [8:0] $end
$var reg 9 H rq1_wptr [8:0] $end
$upscope $end

$scope module fifomem $end
$var parameter 32 I DATASIZE $end
$var parameter 32 J ADDRSIZE $end
$var parameter 32 K DEPTH $end
$var wire 1 L winc $end
$var wire 1 M wfull $end
$var wire 1 N wclk $end
$var wire 1 O waddr [7] $end
$var wire 1 P waddr [6] $end
$var wire 1 Q waddr [5] $end
$var wire 1 R waddr [4] $end
$var wire 1 S waddr [3] $end
$var wire 1 T waddr [2] $end
$var wire 1 U waddr [1] $end
$var wire 1 V waddr [0] $end
$var wire 1 W raddr [7] $end
$var wire 1 X raddr [6] $end
$var wire 1 Y raddr [5] $end
$var wire 1 Z raddr [4] $end
$var wire 1 [ raddr [3] $end
$var wire 1 \ raddr [2] $end
$var wire 1 ] raddr [1] $end
$var wire 1 ^ raddr [0] $end
$var wire 1 _ wdata [7] $end
$var wire 1 ` wdata [6] $end
$var wire 1 a wdata [5] $end
$var wire 1 b wdata [4] $end
$var wire 1 c wdata [3] $end
$var wire 1 d wdata [2] $end
$var wire 1 e wdata [1] $end
$var wire 1 f wdata [0] $end
$var reg 8 g rdata [7:0] $end
$upscope $end

$scope module rptr_empty $end
$var parameter 32 h ADDRSIZE $end
$var wire 1 i rinc $end
$var wire 1 j rclk $end
$var wire 1 k rrst_n $end
$var wire 1 l rq2_wptr [8] $end
$var wire 1 m rq2_wptr [7] $end
$var wire 1 n rq2_wptr [6] $end
$var wire 1 o rq2_wptr [5] $end
$var wire 1 p rq2_wptr [4] $end
$var wire 1 q rq2_wptr [3] $end
$var wire 1 r rq2_wptr [2] $end
$var wire 1 s rq2_wptr [1] $end
$var wire 1 t rq2_wptr [0] $end
$var reg 1 u rempty $end
$var reg 8 v raddr [7:0] $end
$var reg 9 w rptr [8:0] $end
$var reg 9 x rbin [8:0] $end
$var reg 9 y rgraynext [8:0] $end
$var reg 9 z rbinnext [8:0] $end
$var wire 1 { rempty_val $end
$upscope $end

$scope module wptr_full $end
$var parameter 32 | ADDRSIZE $end
$var wire 1 } winc $end
$var wire 1 ~ wclk $end
$var wire 1 !! wrst_n $end
$var wire 1 "! wq2_rptr [8] $end
$var wire 1 #! wq2_rptr [7] $end
$var wire 1 $! wq2_rptr [6] $end
$var wire 1 %! wq2_rptr [5] $end
$var wire 1 &! wq2_rptr [4] $end
$var wire 1 '! wq2_rptr [3] $end
$var wire 1 (! wq2_rptr [2] $end
$var wire 1 )! wq2_rptr [1] $end
$var wire 1 *! wq2_rptr [0] $end
$var reg 1 +! wfull $end
$var reg 8 ,! waddr [7:0] $end
$var reg 9 -! wptr [8:0] $end
$var reg 9 .! wbin [8:0] $end
$var reg 9 /! wgraynext [8:0] $end
$var reg 9 0! wbinnext [8:0] $end
$var reg 1 1! wfull_val $end
$upscope $end
$upscope $end
$upscope $end

$scope begin uvm_pkg $end
$var parameter 32 2! UVM_HDL_MAX_WIDTH $end
$var parameter 32 3! UVM_STREAMBITS $end
$var parameter 32 4! UVM_RADIX $end
$var parameter 32 5! UVM_MACRO_NUMFLAGS $end
$var parameter 32 6! UVM_DEFAULT $end
$var parameter 32 7! UVM_ALL_ON $end
$var parameter 32 8! UVM_FLAGS_ON $end
$var parameter 32 9! UVM_FLAGS_OFF $end
$var parameter 32 :! UVM_COPY $end
$var parameter 32 ;! UVM_NOCOPY $end
$var parameter 32 <! UVM_COMPARE $end
$var parameter 32 =! UVM_NOCOMPARE $end
$var parameter 32 >! UVM_PRINT $end
$var parameter 32 ?! UVM_NOPRINT $end
$var parameter 32 @! UVM_RECORD $end
$var parameter 32 A! UVM_NORECORD $end
$var parameter 32 B! UVM_PACK $end
$var parameter 32 C! UVM_NOPACK $end
$var parameter 32 D! UVM_PHYSICAL $end
$var parameter 32 E! UVM_ABSTRACT $end
$var parameter 32 F! UVM_READONLY $end
$var parameter 32 G! UVM_NODEFPRINT $end
$var parameter 32 H! UVM_MACRO_EXTRAS $end
$var parameter 32 I! UVM_FLAGS $end
$var parameter 32 J! UVM_UNPACK $end
$var parameter 32 K! UVM_CHECK_FIELDS $end
$var parameter 32 L! UVM_END_DATA_EXTRA $end
$var parameter 32 M! UVM_START_FUNCS $end
$var parameter 32 N! UVM_SET $end
$var parameter 32 O! UVM_SETINT $end
$var parameter 32 P! UVM_SETOBJ $end
$var parameter 32 Q! UVM_SETSTR $end
$var parameter 32 R! UVM_END_FUNCS $end
$var parameter 32 S! UVM_STR_CRC_POLYNOMIAL $end
$var parameter 32 T! UVM_STDOUT $end
$var parameter 32 U! UVM_LINE_WIDTH $end
$var parameter 32 V! UVM_NUM_LINES $end
$var parameter 32 W! UVM_SMALL_STRING $end
$var parameter 32 X! UVM_LARGE_STRING $end
$var reg 1 Y! uvm_start_uvm_declarations $end
$var integer 32 Z! uvm_global_random_seed $end
$var integer 32 [! UVM_UNBOUNDED_CONNECTIONS $end

$scope function uvm_hdl_check_path $end
$var integer 32 \! uvm_hdl_check_path $end
$upscope $end

$scope function uvm_hdl_deposit $end
$var integer 32 ]! uvm_hdl_deposit $end
$var reg 1024 ^! value [1023:0] $end
$upscope $end

$scope function uvm_hdl_force $end
$var integer 32 _! uvm_hdl_force $end
$var reg 1024 `! value [1023:0] $end
$upscope $end

$scope task uvm_hdl_force_time $end
$var reg 1024 a! value [1023:0] $end
$var time 64 b! force_time $end
$upscope $end

$scope function uvm_hdl_release_and_read $end
$var integer 32 c! uvm_hdl_release_and_read $end
$var reg 1024 d! value [1023:0] $end
$upscope $end

$scope function uvm_hdl_release $end
$var integer 32 e! uvm_hdl_release $end
$upscope $end

$scope function uvm_hdl_read $end
$var integer 32 f! uvm_hdl_read $end
$var reg 1024 g! value [1023:0] $end
$upscope $end

$scope function uvm_dpi_get_next_arg_c $end
$upscope $end

$scope function uvm_dpi_get_tool_name_c $end
$upscope $end

$scope function uvm_dpi_get_tool_version_c $end
$upscope $end

$scope function uvm_dpi_get_next_arg $end
$upscope $end

$scope function uvm_dpi_get_tool_name $end
$upscope $end

$scope function uvm_dpi_get_tool_version $end
$upscope $end

$scope function uvm_dpi_regcomp $end
$upscope $end

$scope function uvm_dpi_regexec $end
$var integer 32 h! uvm_dpi_regexec $end
$upscope $end

$scope function uvm_dpi_regfree $end
$upscope $end

$scope function uvm_re_match $end
$var integer 32 i! uvm_re_match $end
$upscope $end

$scope function uvm_dump_re_cache $end
$upscope $end

$scope function uvm_glob_to_re $end
$upscope $end

$scope function uvm_revision_string $end
$upscope $end

$scope function uvm_radix_to_string $end
$var integer 32 j! radix $end
$upscope $end

$scope function uvm_instance_scope $end
$var reg 8 k! c [7:0] $end
$var integer 32 l! pos $end
$upscope $end

$scope function uvm_oneway_hash $end
$var integer 32 m! uvm_oneway_hash $end
$var integer 32 n! seed $end
$var reg 1 o! msb $end
$var reg 8 p! current_byte [7:0] $end
$var reg 32 q! crc1 [31:0] $end
$upscope $end

$scope function uvm_create_random_seed $end
$var integer 32 r! uvm_create_random_seed $end
$upscope $end

$scope function uvm_object_value_str $end
$upscope $end

$scope function uvm_leaf_scope $end
$var reg 8 s! scope_separator [7:0] $end
$var reg 8 t! bracket_match [7:0] $end
$var integer 32 u! pos $end
$var integer 32 v! bmatches $end
$upscope $end

$scope function uvm_vector_to_string $end
$var reg 4096 w! value [4095:0] $end
$var integer 32 x! size $end
$var integer 32 y! radix $end
$upscope $end

$scope function uvm_get_array_index_int $end
$var integer 32 z! uvm_get_array_index_int $end
$var reg 1 {! is_wildcard $end
$var integer 32 |! i $end
$upscope $end

$scope function uvm_get_array_index_string $end
$var reg 1 }! is_wildcard $end
$var integer 32 ~! i $end
$upscope $end

$scope function uvm_is_array $end
$var reg 1 !" uvm_is_array $end
$upscope $end

$scope function uvm_has_wildcard $end
$upscope $end

$scope task run_test $end
$upscope $end

$scope function global_stop_request $end
$upscope $end

$scope function set_global_timeout $end
$var time 64 "" timeout $end
$var reg 1 #" overridable $end
$upscope $end

$scope function set_global_stop_timeout $end
$var time 64 $" timeout $end
$upscope $end

$scope function uvm_report_enabled $end
$var reg 1 %" uvm_report_enabled $end
$var integer 32 &" verbosity $end
$var reg 2 '" severity [1:0] $end
$upscope $end

$scope function uvm_report $end
$var reg 2 (" severity [1:0] $end
$var integer 32 )" verbosity $end
$var integer 32 *" line $end
$upscope $end

$scope function uvm_report_info $end
$var integer 32 +" verbosity $end
$var integer 32 ," line $end
$upscope $end

$scope function uvm_report_warning $end
$var integer 32 -" verbosity $end
$var integer 32 ." line $end
$upscope $end

$scope function uvm_report_error $end
$var integer 32 /" verbosity $end
$var integer 32 0" line $end
$upscope $end

$scope function uvm_report_fatal $end
$var integer 32 1" verbosity $end
$var integer 32 2" line $end
$upscope $end

$scope function uvm_string_to_severity $end
$var reg 1 3" uvm_string_to_severity $end
$var reg 2 4" sev [1:0] $end
$upscope $end

$scope function uvm_string_to_action $end
$upscope $end

$scope function set_config_int $end
$var reg 4096 5" value [4095:0] $end
$upscope $end

$scope function set_config_object $end
$var reg 1 6" clone $end
$upscope $end

$scope function set_config_string $end
$upscope $end

$scope function uvm_is_match $end
$var reg 1 7" uvm_is_match $end
$upscope $end

$scope function uvm_string_to_bits $end
$var reg 115200 8" uvm_string_to_bits [115199:0] $end
$upscope $end

$scope function uvm_bits_to_string $end
$var reg 115200 9" str [115199:0] $end
$upscope $end

$scope task uvm_wait_for_nba_region $end
$var integer 32 :" nba $end
$var integer 32 ;" next_nba $end
$upscope $end

$scope function uvm_split_string $end
$upscope $end

$scope function uvm_hdl_concat2string $end
$upscope $end
$upscope $end

$scope begin testbench_sv_unit $end
$upscope $end

$scope begin questa_uvm_pkg $end
$upscope $end

$scope begin std $end
$upscope $end
$enddefinitions $end
#0
$dumpvars
0{!
0}!
0!"
03"
b0 4"
bx 8"
bx 9"
bx ^!
bx `!
bx a!
bx d!
bx g!
1Y!
0o!
b1110100 p!
b11000110011000000010100010010 q!
b1 w!
0#"
0%"
b0 '"
b0 ("
bx 5"
06"
07"
b0 '
b0 (
b0 )
b0 *
b0 +
b0 ,
b0 9
b0 :
b0 G
b0 H
bx g
1u
b0 v
b0 w
b0 x
b0 y
b0 z
0+!
b0 ,!
b0 -!
b0 .!
b0 /!
b0 0!
01!
b10000000000 2!
b1000000000000 3!
b1111000000000000000000000000 4!
b10001 5!
b10101010101 6!
b101010101 7!
b101010101 8!
b0 9!
b1 :!
b10 ;!
b100 <!
b1000 =!
b10000 >!
b100000 ?!
b1000000 @!
b10000000 A!
b100000000 B!
b1000000000 C!
b10000000000000 D!
b100000000000000 E!
b1000000000000000 F!
b10000000000000000 G!
b100000000000000000 H!
b100000000000000001 I!
b100000000000000010 J!
b100000000000000011 K!
b100000000000000100 L!
b100000000000000101 M!
b100000000000000110 N!
b100000000000000110 O!
b100000000000000111 P!
b100000000000001000 Q!
b100000000000001000 R!
b100110000010001110110110110 S!
b1 T!
b1111000 U!
b1111000 V!
b1110111111 W!
b11100000111111111 X!
b1000 !
b1000 "
b11 #
b1 $
b1000 %
b1000 &
b1000 -
b1000 ;
b1000 I
b1000 J
b11111111 K
b1000 h
b1000 |
b0 j!
b101110 s!
b0 t!
b10100 u!
b11111111111111111111111111111111 v!
b0 z!
b0 |!
b0 ~!
b0 \!
b0 ]!
b0 _!
b0 c!
b0 e!
b0 f!
b1 h!
b0 i!
b10011101110100111100000000101000 Z!
b101110 k!
b111 l!
b10001011110011011111010000001111 m!
b10011101110100111100000000101000 n!
b11011000111110110011000111000111 r!
b100000 x!
b10000000000000000000000000 y!
b111110100 &"
b0 )"
b0 *"
b1100100 +"
b1100101 ,"
b0 -"
b0 ."
b0 /"
b0 0"
b0 1"
b0 2"
b100011 :"
b100011 ;"
b11111111111111111111111111111111 [!
bx b!
bx ""
bx $"
1{
0*!
0)!
0(!
0'!
0&!
0%!
0$!
0#!
0"!
0!!
0~
0}
0t
0s
0r
0q
0p
0o
0n
0m
0l
0k
0j
0i
0f
0e
0d
0c
0b
0a
0`
0_
0^
0]
0\
0[
0Z
0Y
0X
0W
0V
0U
0T
0S
0R
0Q
0P
0O
0N
0M
0L
0F
0E
0D
0C
0B
0A
0@
0?
0>
0=
0<
08
07
06
05
04
03
02
01
00
0/
0.
$end
#2
1.
1N
1~
b100100 ;"
1L
x=
xk
x/
x!!
1}
b1 0!
b1 /!
b100100 :"
b10001011110011011111010000010000 r!
1d
1`
#4
0.
0N
0~
#5
1<
1j
#6
1.
1N
1~
b100101 ;"
0=
0k
0/
0!!
b1 -!
b1 .!
b100101 :"
b0 -!
b0 .!
b1000100 g
b10001011110011011111010000010010 r!
1f
#8
0.
0N
0~
#10
0<
0j
1.
1N
1~
b100110 ;"
1=
1k
1/
1!!
b100110 :"
b1000101 g
b10001011110011011111010000010101 r!
0f
1e
#12
0.
0N
0~
#14
1.
1N
1~
b100111 ;"
b1 -!
b1 .!
b100111 :"
b1 )
1F
b1000110 g
b1 ,!
b10 0!
b11 /!
b1 '
1V
b10001011110011011111010000011001 r!
1f
#15
1<
1j
b1 H
#16
0.
0N
0~
#18
1.
1N
1~
b101000 ;"
b11 -!
b10 .!
b101000 :"
b11 )
1E
b10 ,!
b11 0!
b10 /!
b10 '
0V
1U
b10001011110011011111010000011110 r!
0f
0e
0d
1c
#20
0<
0j
0.
0N
0~
#22
1.
1N
1~
b101001 ;"
b10 -!
b11 .!
b101001 :"
b10 )
0F
b11 ,!
b100 0!
b110 /!
b11 '
1V
b10001011110011011111010000100100 r!
1f
#24
0.
0N
0~
#25
1<
1j
b10 H
b1 G
b1 ,
1t
0{
#26
1.
1N
1~
b101010 ;"
b110 -!
b100 .!
b101010 :"
b110 )
1D
b100 ,!
b101 0!
b111 /!
b100 '
0V
0U
1T
b10001011110011011111010000101011 r!
1e
1d
1b
1a
1_
#28
0.
0N
0~
#30
0<
0j
1.
1N
1~
b101011 ;"
b111 -!
b101 .!
b101011 :"
b111 )
1F
b101 ,!
b110 0!
b101 /!
b101 '
1V
b10001011110011011111010000110011 r!
0f
0e
0d
0c
0b
0a
0`
0_
#32
0.
0N
0~
#34
1.
1N
1~
b101100 ;"
b101 -!
b110 .!
b101100 :"
b101 )
0E
b110 ,!
b111 0!
b100 /!
b110 '
0V
1U
b10001011110011011111010000111100 r!
1f
#35
1<
1j
0u
b101 H
b10 G
b10 ,
0t
1s
#36
0.
0N
0~
#38
1.
1N
1~
b101101 ;"
b100 -!
b111 .!
b101101 :"
b100 )
0F
b111 ,!
b1000 0!
b1100 /!
b111 '
1V
b10001011110011011111010001000110 r!
0f
1e
#40
0<
0j
0.
0N
0~
#42
1.
1N
1~
b101110 ;"
b1100 -!
b1000 .!
b101110 :"
b1100 )
1C
b1000 ,!
b1001 0!
b1101 /!
b1000 '
0V
0U
0T
1S
b10001011110011011111010001010001 r!
0e
1d
#44
0.
0N
0~
#45
1<
1j
b1100 H
b101 G
b101 ,
1t
0s
1r
1i
b1 z
b1 y
#46
1.
1N
1~
b101111 ;"
b1101 -!
b1001 .!
b101111 :"
b1101 )
1F
b1001 ,!
b1010 0!
b1111 /!
b1001 '
1V
b10001011110011011111010001011101 r!
0d
1c
#48
0.
0N
0~
#50
0<
0j
1.
1N
1~
b110000 ;"
b1111 -!
b1010 .!
b110000 :"
b1111 )
1E
b1010 ,!
b1011 0!
b1110 /!
b1010 '
0V
1U
b10001011110011011111010001101010 r!
0c
1b
#52
0.
0N
0~
#54
1.
1N
1~
b110001 ;"
b1110 -!
b1011 .!
b110001 :"
b1110 )
0F
b1011 ,!
b1100 0!
b1010 /!
b1011 '
1V
b10001011110011011111010001111000 r!
0b
1a
#55
1<
1j
b1 w
b1 x
b1110 H
b1100 G
b1100 ,
b1 *
18
0t
1q
0i
b1 v
b1 (
1^
b1000111 g
#56
0.
0N
0~
#58
1.
1N
1~
b110010 ;"
b1010 -!
b1100 .!
b1 :
b110010 :"
b1010 )
0D
b1100 ,!
b1101 0!
b1011 /!
b1100 '
0V
0U
1T
b10001011110011011111010010000111 r!
0a
1`
#60
0<
0j
0.
0N
0~
#62
1.
1N
1~
b110011 ;"
b1011 -!
b1101 .!
b1 9
b110011 :"
b1 +
b1011 )
1F
1*!
b1101 ,!
b1110 0!
b1001 /!
b1101 '
1V
b10001011110011011111010010010111 r!
0`
1_
#64
0.
0N
0~
#65
1<
1j
b1011 H
b1110 G
b1110 ,
1s
#66
1.
1N
1~
b110100 ;"
b1001 -!
b1110 .!
b110100 :"
b1001 )
0E
b1110 ,!
b1111 0!
b1000 /!
b1110 '
0V
1U
b10001011110011011111010010101000 r!
1f
0_
#68
0.
0N
0~
#70
0<
0j
1.
1N
1~
b110101 ;"
b1000 -!
b1111 .!
b110101 :"
b1000 )
0F
b1111 ,!
b10000 0!
b11000 /!
b1111 '
1V
b10001011110011011111010010111010 r!
0f
1e
#72
0.
0N
0~
#74
1.
1N
1~
b110110 ;"
b11000 -!
b10000 .!
b110110 :"
b11000 )
1B
b10000 ,!
b10001 0!
b11001 /!
b10000 '
0V
0U
0T
0S
1R
b10001011110011011111010011001101 r!
1f
#75
1<
1j
b11000 H
b1011 G
b1011 ,
1t
0r
1i
b10 z
b11 y
#76
0.
0N
0~
#78
1.
1N
1~
b110111 ;"
b11001 -!
b10001 .!
b110111 :"
b11001 )
1F
b10001 ,!
b10010 0!
b11011 /!
b10001 '
1V
b10001011110011011111010011100001 r!
0f
0e
1d
#80
0<
0j
0.
0N
0~
#82
1.
1N
1~
b111000 ;"
b11011 -!
b10010 .!
b111000 :"
b11011 )
1E
b10010 ,!
b10011 0!
b11010 /!
b10010 '
0V
1U
b10001011110011011111010011110110 r!
1f
#84
0.
0N
0~
#85
1<
1j
b11 w
b10 x
b11011 H
b11000 G
b11000 ,
b11 *
17
0t
0s
1p
0i
b10 v
b10 (
0^
1]
b1001000 g
#86
1.
1N
1~
b111001 ;"
b11010 -!
b10011 .!
b11 :
b111001 :"
b11010 )
0F
b10011 ,!
b10100 0!
b11110 /!
b10011 '
1V
b10001011110011011111010100001100 r!
0f
1e
#88
0.
0N
0~
#90
0<
0j
1.
1N
1~
b111010 ;"
b11110 -!
b10100 .!
b11 9
b111010 :"
b11 +
b11110 )
1D
1)!
b10100 ,!
b10101 0!
b11111 /!
b10100 '
0V
0U
1T
b10001011110011011111010100100011 r!
1f
#92
0.
0N
0~
#94
1.
1N
1~
b111011 ;"
b11111 -!
b10101 .!
b111011 :"
b11111 )
1F
b10101 ,!
b10110 0!
b11101 /!
b10101 '
1V
b10001011110011011111010100111011 r!
0f
0e
0d
1c
#95
1<
1j
b11111 H
b11011 G
b11011 ,
1t
1s
#96
0.
0N
0~
#98
1.
1N
1~
b111100 ;"
b11101 -!
b10110 .!
b111100 :"
b11101 )
0E
b10110 ,!
b10111 0!
b11100 /!
b10110 '
0V
1U
b10001011110011011111010101010100 r!
1f
#100
0<
0j
0.
0N
0~
#102
1.
1N
1~
b111101 ;"
b11100 -!
b10111 .!
b111101 :"
b11100 )
0F
b10111 ,!
b11000 0!
b10100 /!
b10111 '
1V
b10001011110011011111010101101110 r!
0f
0c
1b
#104
0.
0N
0~
#105
1<
1j
b11100 H
b11111 G
b11111 ,
1r
1i
b11 z
b10 y
#106
1.
1N
1~
b111110 ;"
b10100 -!
b11000 .!
b111110 :"
b10100 )
0C
b11000 ,!
b11001 0!
b10101 /!
b11000 '
0V
0U
0T
1S
b10001011110011011111010110001001 r!
1f
#108
0.
0N
0~
#110
0<
0j
1.
1N
1~
b111111 ;"
b10101 -!
b11001 .!
b111111 :"
b10101 )
1F
b11001 ,!
b11010 0!
b10111 /!
b11001 '
1V
b10001011110011011111010110100101 r!
0f
1e
#112
0.
0N
0~
#114
1.
1N
1~
b1000000 ;"
b10111 -!
b11010 .!
b1000000 :"
b10111 )
1E
b11010 ,!
b11011 0!
b10110 /!
b11010 '
0V
1U
b10001011110011011111010111000010 r!
1f
#115
1<
1j
b10 w
b11 x
b10111 H
b11100 G
b11100 ,
b10 *
08
0t
0s
0i
b11 v
b11 (
1^
b1001001 g
#116
0.
0N
0~
#118
1.
1N
1~
b1000001 ;"
b10110 -!
b11011 .!
b10 :
b1000001 :"
b10110 )
0F
b11011 ,!
b11100 0!
b10010 /!
b11011 '
1V
b10001011110011011111010111100000 r!
0f
0e
1d
#120
0<
0j
0.
0N
0~
#122
1.
1N
1~
b1000010 ;"
b10010 -!
b11100 .!
b10 9
b1000010 :"
b10 +
b10010 )
0D
0*!
b11100 ,!
b11101 0!
b10011 /!
b11100 '
0V
0U
1T
b10001011110011011111010111111111 r!
1f
#124
0.
0N
0~
#125
1<
1j
b10010 H
b10111 G
b10111 ,
1t
1s
0q
#126
1.
1N
1~
b1000011 ;"
b10011 -!
b11101 .!
b1000011 :"
b10011 )
1F
b11101 ,!
b11110 0!
b10001 /!
b11101 '
1V
b10001011110011011111011000011111 r!
1e
1c
1a
1`
1_
#128
0.
0N
0~
#130
0<
0j
1.
1N
1~
b1000100 ;"
b10001 -!
b11110 .!
b1000100 :"
b10001 )
0E
b11110 ,!
b11111 0!
b10000 /!
b11110 '
0V
1U
b10001011110011011111011001000000 r!
#132
0.
0N
0~
#134
1.
1N
1~
b1000101 ;"
b10000 -!
b11111 .!
b1000101 :"
b10000 )
0F
b11111 ,!
b100000 0!
b110000 /!
b11111 '
1V
b10001011110011011111011001100010 r!
#135
1<
1j
b10000 H
b10010 G
b10010 ,
0t
0r
1i
b100 z
b110 y
#136
0.
0N
0~
#138
1.
1N
1~
b1000110 ;"
b110000 -!
b100000 .!
b1000110 :"
b110000 )
1A
b100000 ,!
b100001 0!
b110001 /!
b100000 '
0V
0U
0T
0S
0R
1Q
b10001011110011011111011010000101 r!
#140
0<
0j
0.
0N
0~
#142
1.
1N
1~
b1000111 ;"
b110001 -!
b100001 .!
b1000111 :"
b110001 )
1F
b100001 ,!
b100010 0!
b110011 /!
b100001 '
1V
b10001011110011011111011010101001 r!
#144
0.
0N
0~
#145
1<
1j
b110 w
b100 x
b110001 H
b10000 G
b10000 ,
b110 *
16
0s
0i
b100 v
b100 (
0^
0]
1\
b11111111 g
#146
1.
1N
1~
b1001000 ;"
b110011 -!
b100010 .!
b110 :
b1001000 :"
b110011 )
1E
b100010 ,!
b100011 0!
b110010 /!
b100010 '
0V
1U
b10001011110011011111011011001110 r!
#148
0.
0N
0~
#150
0<
0j
1.
1N
1~
b1001001 ;"
b110010 -!
b100011 .!
b110 9
b1001001 :"
b110 +
b110010 )
0F
1(!
b100011 ,!
b100100 0!
b110110 /!
b100011 '
1V
b10001011110011011111011011110100 r!
#152
0.
0N
0~
#154
1.
1N
1~
b1001010 ;"
b110110 -!
b100100 .!
b1001010 :"
b110110 )
1D
b100100 ,!
b100101 0!
b110111 /!
b100100 '
0V
0U
1T
b10001011110011011111011100011011 r!
#155
1<
1j
b110110 H
b110001 G
b110001 ,
1t
1o
#156
0.
0N
0~
#158
1.
1N
1~
b1001011 ;"
b110111 -!
b100101 .!
b1001011 :"
b110111 )
1F
b100101 ,!
b100110 0!
b110101 /!
b100101 '
1V
b10001011110011011111011101000011 r!
#160
0<
0j
0.
0N
0~
#162
1.
1N
1~
b1001100 ;"
b110101 -!
b100110 .!
b1001100 :"
b110101 )
0E
b100110 ,!
b100111 0!
b110100 /!
b100110 '
0V
1U
b10001011110011011111011101101100 r!
#164
0.
0N
0~
#165
1<
1j
b110101 H
b110110 G
b110110 ,
0t
1s
1r
1i
b101 z
b111 y
#166
1.
1N
1~
b1001101 ;"
b110100 -!
b100111 .!
b1001101 :"
b110100 )
0F
b100111 ,!
b101000 0!
b111100 /!
b100111 '
1V
b10001011110011011111011110010110 r!
0f
0e
0d
0c
0b
0a
0`
0_
#168
0.
0N
0~
#170
0<
0j
1.
1N
1~
b1001110 ;"
b111100 -!
b101000 .!
b1001110 :"
b111100 )
1C
b101000 ,!
b101001 0!
b111101 /!
b101000 '
0V
0U
0T
1S
b10001011110011011111011111000001 r!
#172
0.
0N
0~
#174
1.
1N
1~
b1001111 ;"
b111101 -!
b101001 .!
b1001111 :"
b111101 )
1F
b101001 ,!
b101010 0!
b111111 /!
b101001 '
1V
b10001011110011011111011111101101 r!
#175
1<
1j
b111 w
b101 x
b111101 H
b110101 G
b110101 ,
b111 *
18
1t
0s
0i
b101 v
b101 (
1^
b0 g
#176
0.
0N
0~
#178
1.
1N
1~
b1010000 ;"
b111111 -!
b101010 .!
b111 :
b1010000 :"
b111111 )
1E
b101010 ,!
b101011 0!
b111110 /!
b101010 '
0V
1U
b10001011110011011111100000011010 r!
#180
0<
0j
0.
0N
0~
#182
1.
1N
1~
b1010001 ;"
b111110 -!
b101011 .!
b111 9
b1010001 :"
b111 +
b111110 )
0F
1*!
b101011 ,!
b101100 0!
b111010 /!
b101011 '
1V
b10001011110011011111100001001000 r!
#184
0.
0N
0~
#185
1<
1j
b111110 H
b111101 G
b111101 ,
1q
#186
1.
1N
1~
b1010010 ;"
b111010 -!
b101100 .!
b1010010 :"
b111010 )
0D
b101100 ,!
b101101 0!
b111011 /!
b101100 '
0V
0U
1T
b10001011110011011111100001110111 r!
#188
0.
0N
0~
#190
0<
0j
1.
1N
1~
b1010011 ;"
b111011 -!
b101101 .!
b1010011 :"
b111011 )
1F
b101101 ,!
b101110 0!
b111001 /!
b101101 '
1V
b10001011110011011111100010100111 r!
xf
xe
xd
xc
xb
xa
x`
x_
#192
0.
0N
0~
