final_submission/class/sim/dump.vcd
$date
	Tue Mar  5 23:14:25 2024
$end
$version
	QuestaSim Version 2023.3
$end
$timescale
	1ns
$end

$scope module async_fifo1_tb_uvm $end
$var parameter 32 ! DSIZE $end
$var parameter 32 " ASIZE $end
$var parameter 32 # IDLE_R $end
$var parameter 32 $ IDLE_W $end

$scope module test_inst $end
$upscope $end

$scope module dut $end
$var parameter 32 % DSIZE $end
$var parameter 32 & ASIZE $end
$var reg 8 ' waddr [7:0] $end
$var reg 8 ( raddr [7:0] $end
$var reg 9 ) wptr [8:0] $end
$var reg 9 * rptr [8:0] $end
$var reg 9 + wq2_rptr [8:0] $end
$var reg 9 , rq2_wptr [8:0] $end

$scope module sync_r2w $end
$var parameter 32 - ADDRSIZE $end
$var wire 1 . wclk $end
$var wire 1 / wrst_n $end
$var wire 1 0 rptr [8] $end
$var wire 1 1 rptr [7] $end
$var wire 1 2 rptr [6] $end
$var wire 1 3 rptr [5] $end
$var wire 1 4 rptr [4] $end
$var wire 1 5 rptr [3] $end
$var wire 1 6 rptr [2] $end
$var wire 1 7 rptr [1] $end
$var wire 1 8 rptr [0] $end
$var reg 9 9 wq2_rptr [8:0] $end
$var reg 9 : wq1_rptr [8:0] $end
$upscope $end

$scope module sync_w2r $end
$var parameter 32 ; ADDRSIZE $end
$var wire 1 < rclk $end
$var wire 1 = rrst_n $end
$var wire 1 > wptr [8] $end
$var wire 1 ? wptr [7] $end
$var wire 1 @ wptr [6] $end
$var wire 1 A wptr [5] $end
$var wire 1 B wptr [4] $end
$var wire 1 C wptr [3] $end
$var wire 1 D wptr [2] $end
$var wire 1 E wptr [1] $end
$var wire 1 F wptr [0] $end
$var reg 9 G rq2_wptr [8:0] $end
$var reg 9 H rq1_wptr [8:0] $end
$upscope $end

$scope module fifomem $end
$var parameter 32 I DATASIZE $end
$var parameter 32 J ADDRSIZE $end
$var parameter 32 K DEPTH $end
$var wire 1 L winc $end
$var wire 1 M wfull $end
$var wire 1 N wclk $end
$var wire 1 O waddr [7] $end
$var wire 1 P waddr [6] $end
$var wire 1 Q waddr [5] $end
$var wire 1 R waddr [4] $end
$var wire 1 S waddr [3] $end
$var wire 1 T waddr [2] $end
$var wire 1 U waddr [1] $end
$var wire 1 V waddr [0] $end
$var wire 1 W raddr [7] $end
$var wire 1 X raddr [6] $end
$var wire 1 Y raddr [5] $end
$var wire 1 Z raddr [4] $end
$var wire 1 [ raddr [3] $end
$var wire 1 \ raddr [2] $end
$var wire 1 ] raddr [1] $end
$var wire 1 ^ raddr [0] $end
$var wire 1 _ wdata [7] $end
$var wire 1 ` wdata [6] $end
$var wire 1 a wdata [5] $end
$var wire 1 b wdata [4] $end
$var wire 1 c wdata [3] $end
$var wire 1 d wdata [2] $end
$var wire 1 e wdata [1] $end
$var wire 1 f wdata [0] $end
$var reg 8 g rdata [7:0] $end
$upscope $end

$scope module rptr_empty $end
$var parameter 32 h ADDRSIZE $end
$var wire 1 i rinc $end
$var wire 1 j rclk $end
$var wire 1 k rrst_n $end
$var wire 1 l rq2_wptr [8] $end
$var wire 1 m rq2_wptr [7] $end
$var wire 1 n rq2_wptr [6] $end
$var wire 1 o rq2_wptr [5] $end
$var wire 1 p rq2_wptr [4] $end
$var wire 1 q rq2_wptr [3] $end
$var wire 1 r rq2_wptr [2] $end
$var wire 1 s rq2_wptr [1] $end
$var wire 1 t rq2_wptr [0] $end
$var reg 1 u rempty $end
$var reg 8 v raddr [7:0] $end
$var reg 9 w rptr [8:0] $end
$var reg 9 x rbin [8:0] $end
$var reg 9 y rgraynext [8:0] $end
$var reg 9 z rbinnext [8:0] $end
$var wire 1 { rempty_val $end
$upscope $end

$scope module wptr_full $end
$var parameter 32 | ADDRSIZE $end
$var wire 1 } winc $end
$var wire 1 ~ wclk $end
$var wire 1 !! wrst_n $end
$var wire 1 "! wq2_rptr [8] $end
$var wire 1 #! wq2_rptr [7] $end
$var wire 1 $! wq2_rptr [6] $end
$var wire 1 %! wq2_rptr [5] $end
$var wire 1 &! wq2_rptr [4] $end
$var wire 1 '! wq2_rptr [3] $end
$var wire 1 (! wq2_rptr [2] $end
$var wire 1 )! wq2_rptr [1] $end
$var wire 1 *! wq2_rptr [0] $end
$var reg 1 +! wfull $end
$var reg 8 ,! waddr [7:0] $end
$var reg 9 -! wptr [8:0] $end
$var reg 9 .! wbin [8:0] $end
$var reg 9 /! wgraynext [8:0] $end
$var reg 9 0! wbinnext [8:0] $end
$var reg 1 1! wfull_val $end
$upscope $end
$upscope $end
$upscope $end
$enddefinitions $end
#0
$dumpvars
b0 '
b0 (
b0 )
b0 *
b0 +
b0 ,
b0 9
b0 :
b0 G
b0 H
bx g
1u
b0 v
b0 w
b0 x
b0 y
b0 z
0+!
b0 ,!
b0 -!
b0 .!
b0 /!
b0 0!
01!
b1000 !
b1000 "
b11 #
b1 $
b1000 %
b1000 &
b1000 -
b1000 ;
b1000 I
b1000 J
b11111111 K
b1000 h
b1000 |
1{
0*!
0)!
0(!
0'!
0&!
0%!
0$!
0#!
0"!
0!!
0~
0}
0t
0s
0r
0q
0p
0o
0n
0m
0l
0k
0j
0i
0f
0e
0d
0c
0b
0a
0`
0_
0^
0]
0\
0[
0Z
0Y
0X
0W
0V
0U
0T
0S
0R
0Q
0P
0O
0N
0M
0L
0F
0E
0D
0C
0B
0A
0@
0?
0>
0=
0<
08
07
06
05
04
03
02
01
00
0/
0.
$end
#10
1.
1N
1~
#20
0.
0N
0~
#30
1.
1N
1~
1/
1!!
1=
1k
#35
1<
1j
#40
0.
0N
0~
#50
1.
1N
1~
1L
1}
b1 0!
b1 /!
#60
0.
0N
0~
#70
0<
0j
1.
1N
1~
1f
1e
1d
1b
1a
1`
1_
b1 -!
b1 .!
b1 )
1F
b0 g
b1 ,!
b10 0!
b11 /!
b1 '
1V
#80
0.
0N
0~
#90
1.
1N
1~
0f
0e
0`
0_
b11 -!
b10 .!
b11 )
1E
b10 ,!
b11 0!
b10 /!
b10 '
0V
1U
#100
0.
0N
0~
#105
1<
1j
b11 H
#110
1.
1N
1~
0d
1c
0b
1`
b10 -!
b11 .!
b10 )
0F
b11 ,!
b100 0!
b110 /!
b11 '
1V
#120
0.
0N
0~
#130
1.
1N
1~
1d
0c
1b
0`
1_
b110 -!
b100 .!
b110 )
1D
b100 ,!
b101 0!
b111 /!
b100 '
0V
0U
1T
#140
0<
0j
0.
0N
0~
#150
1.
1N
1~
0d
0a
0_
b111 -!
b101 .!
b111 )
1F
b101 ,!
b110 0!
b101 /!
b101 '
1V
#160
0.
0N
0~
#170
1.
1N
1~
1e
0b
1a
1_
b101 -!
b110 .!
b101 )
0E
b110 ,!
b111 0!
b100 /!
b110 '
0V
1U
#175
1<
1j
b101 H
b11 G
b11 ,
1t
1s
0{
#180
0.
0N
0~
#190
1.
1N
1~
0e
1c
1`
0_
b100 -!
b111 .!
b100 )
0F
b111 ,!
b1000 0!
b1100 /!
b111 '
1V
#200
0.
0N
0~
#210
0<
0j
1.
1N
1~
1e
1d
1b
0a
1_
b1100 -!
b1000 .!
b1100 )
1C
b1000 ,!
b1001 0!
b1101 /!
b1000 '
0V
0U
0T
1S
#220
0.
0N
0~
#230
1.
1N
1~
1f
0d
0b
1a
0_
b1101 -!
b1001 .!
b1101 )
1F
b1001 ,!
b1010 0!
b1111 /!
b1001 '
1V
#240
0.
0N
0~
#245
1<
1j
0u
b1101 H
b101 G
b101 ,
0s
1r
#250
1.
1N
1~
0c
1b
0a
0`
1_
b1111 -!
b1010 .!
b1111 )
1E
b1010 ,!
b1011 0!
b1110 /!
b1010 '
0V
1U
#260
0.
0N
0~
#270
1.
1N
1~
0f
0e
0b
1`
0_
b1110 -!
b1011 .!
b1110 )
0F
b1011 ,!
b1100 0!
b1010 /!
b1011 '
1V
#280
0<
0j
0.
0N
0~
#290
1.
1N
1~
1f
1e
1d
1c
1_
b1010 -!
b1100 .!
b1010 )
0D
b1100 ,!
b1101 0!
b1011 /!
b1100 '
0V
0U
1T
#300
0.
0N
0~
#310
1.
1N
1~
0f
0e
0c
1b
0_
b1011 -!
b1101 .!
b1011 )
1F
b1101 ,!
b1110 0!
b1001 /!
b1101 '
1V
#315
1<
1j
1i
b1 z
b1 y
b1011 H
b1101 G
b1101 ,
1q
#320
0.
0N
0~
#330
1.
1N
1~
1e
0`
1_
b1001 -!
b1110 .!
b1001 )
0E
b1110 ,!
b1111 0!
b1000 /!
b1110 '
0V
1U
#340
0.
0N
0~
#350
0<
0j
1.
1N
1~
1f
1c
0b
1a
1`
0_
b1000 -!
b1111 .!
b1000 )
0F
b1111 ,!
b10000 0!
b11000 /!
b1111 '
1V
#360
0.
0N
0~
#370
1.
1N
1~
0f
0e
0c
1_
b11000 -!
b10000 .!
b11000 )
1B
b10000 ,!
b10001 0!
b11001 /!
b10000 '
0V
0U
0T
0S
1R
#380
0.
0N
0~
#385
1<
1j
0i
b0 z
b0 y
b1 w
b1 x
b11000 H
b1011 G
b1011 ,
b1 *
18
1s
0r
b1 v
b1 z
b1 y
b1 (
1^
b11110111 g
#390
1.
1N
1~
1f
0d
1c
0a
0_
b11001 -!
b10001 .!
b1 :
b11001 )
1F
b10001 ,!
b10010 0!
b11011 /!
b10001 '
1V
#400
0.
0N
0~
#410
1.
1N
1~
1e
0c
0`
b11011 -!
b10010 .!
b1 9
b1 +
b11011 )
1E
1*!
b10010 ,!
b10011 0!
b11010 /!
b10010 '
0V
1U
#420
0<
0j
0.
0N
0~
#430
1.
1N
1~
0e
1d
1a
1_
b11010 -!
b10011 .!
b11010 )
0F
b10011 ,!
b10100 0!
b11110 /!
b10011 '
1V
#440
0.
0N
0~
#450
1.
1N
1~
1c
1`
b11110 -!
b10100 .!
b11110 )
1D
b10100 ,!
b10101 0!
b11111 /!
b10100 '
0V
0U
1T
#455
1<
1j
b11110 H
b11000 G
b11000 ,
0t
0s
1p
#460
0.
0N
0~
#470
1.
1N
1~
1e
0c
1b
0_
b11111 -!
b10101 .!
b11111 )
1F
b10101 ,!
b10110 0!
b11101 /!
b10101 '
1V
#480
0.
0N
0~
#490
0<
0j
1.
1N
1~
0e
0d
1c
0b
0a
0`
1_
b11101 -!
b10110 .!
b11101 )
0E
b10110 ,!
b10111 0!
b11100 /!
b10110 '
0V
1U
#500
0.
0N
0~
#510
1.
1N
1~
0f
0c
1a
1`
b11100 -!
b10111 .!
b11100 )
0F
b10111 ,!
b11000 0!
b10100 /!
b10111 '
1V
#520
0.
0N
0~
#525
1<
1j
1i
b10 z
b11 y
b11100 H
b11110 G
b11110 ,
1s
1r
#530
1.
1N
1~
1f
1e
0a
0`
b10100 -!
b11000 .!
b10100 )
0C
b11000 ,!
b11001 0!
b10101 /!
b11000 '
0V
0U
0T
1S
#540
0.
0N
0~
#550
1.
1N
1~
0f
0e
1d
1c
1b
1a
1`
b10101 -!
b11001 .!
b10101 )
1F
b11001 ,!
b11010 0!
b10111 /!
b11001 '
1V
#560
0<
0j
0.
0N
0~
#570
1.
1N
1~
0d
0c
0a
0`
b10111 -!
b11010 .!
b10111 )
1E
b11010 ,!
b11011 0!
b10110 /!
b11010 '
0V
1U
#580
0.
0N
0~
#590
1.
1N
1~
1f
1c
1`
0_
b10110 -!
b11011 .!
b10110 )
0F
b11011 ,!
b11100 0!
b10010 /!
b11011 '
1V
#595
1<
1j
0i
b1 z
b1 y
b11 w
b10 x
b10110 H
b11100 G
b11100 ,
b11 *
17
0s
b10 v
b10 z
b11 y
b10 (
0^
1]
b110100 g
#600
0.
0N
0~
#610
1.
1N
1~
1e
0`
1_
b10010 -!
b11100 .!
b11 :
b10010 )
0D
b11100 ,!
b11101 0!
b10011 /!
b11100 '
0V
0U
1T
#620
0.
0N
0~
#630
0<
0j
1.
1N
1~
0f
1d
0c
0b
b10011 -!
b11101 .!
b11 9
b11 +
b10011 )
1F
1)!
b11101 ,!
b11110 0!
b10001 /!
b11101 '
1V
#640
0.
0N
0~
#650
1.
1N
1~
0e
1b
1a
0_
b10001 -!
b11110 .!
b10001 )
0E
b11110 ,!
b11111 0!
b10000 /!
b11110 '
0V
1U
#660
0.
0N
0~
#665
1<
1j
b10001 H
b10110 G
b10110 ,
1s
0q
#670
1.
1N
1~
1f
0d
1c
0b
0a
1_
b10000 -!
b11111 .!
b10000 )
0F
b11111 ,!
b100000 0!
b110000 /!
b11111 '
1V
#680
0.
0N
0~
#690
1.
1N
1~
1e
1d
0c
0_
b110000 -!
b100000 .!
b110000 )
1A
b100000 ,!
b100001 0!
b110001 /!
b100000 '
0V
0U
0T
0S
0R
1Q
#700
0<
0j
0.
0N
0~
#710
1.
1N
1~
0e
1`
1_
b110001 -!
b100001 .!
b110001 )
1F
b100001 ,!
b100010 0!
b110011 /!
b100001 '
1V
#720
0.
0N
0~
#730
1.
1N
1~
0d
1b
0`
0_
b110011 -!
b100010 .!
b110011 )
1E
b100010 ,!
b100011 0!
b110010 /!
b100010 '
0V
1U
#735
1<
1j
1i
b11 z
b10 y
b110011 H
b10001 G
b10001 ,
1t
0s
0r
#740
0.
0N
0~
#750
1.
1N
1~
1d
1c
0b
b110010 -!
b100011 .!
b110010 )
0F
b100011 ,!
b100100 0!
b110110 /!
b100011 '
1V
#760
0.
0N
0~
#770
0<
0j
1.
1N
1~
0f
0d
1b
1`
1_
b110110 -!
b100100 .!
b110110 )
1D
b100100 ,!
b100101 0!
b110111 /!
b100100 '
0V
0U
1T
#780
0.
0N
0~
#790
1.
1N
1~
1d
0c
1a
0`
0_
b110111 -!
b100101 .!
b110111 )
1F
b100101 ,!
b100110 0!
b110101 /!
b100101 '
1V
#800
0.
0N
0~
#805
1<
1j
0i
b10 z
b11 y
b10 w
b11 x
b110111 H
b110011 G
b110011 ,
b10 *
08
1s
1o
b11 v
b11 z
b10 y
b11 (
1^
b1101000 g
#810
1.
1N
1~
1f
1e
0d
1c
0a
1_
b110101 -!
b100110 .!
b10 :
b110101 )
0E
b100110 ,!
b100111 0!
b110100 /!
b100110 '
0V
1U
#820
0.
0N
0~
#830
1.
1N
1~
0f
0e
0c
1a
0_
b110100 -!
b100111 .!
b10 9
b10 +
b110100 )
0F
0*!
b100111 ,!
b101000 0!
b111100 /!
b100111 '
1V
#840
0<
0j
0.
0N
0~
#850
1.
1N
1~
1f
1e
1c
0b
0a
1_
b111100 -!
b101000 .!
b111100 )
1C
b101000 ,!
b101001 0!
b111101 /!
b101000 '
0V
0U
0T
1S
#860
0.
0N
0~
#870
1.
1N
1~
0f
1d
0c
1b
1a
0_
b111101 -!
b101001 .!
b111101 )
1F
b101001 ,!
b101010 0!
b111111 /!
b101001 '
1V
#875
1<
1j
b111101 H
b110111 G
b110111 ,
1r
#880
0.
0N
0~
#890
1.
1N
1~
1f
0d
0a
1`
1_
b111111 -!
b101010 .!
b111111 )
1E
b101010 ,!
b101011 0!
b111110 /!
b101010 '
0V
1U
#900
0.
0N
0~
#910
0<
0j
1.
1N
1~
0f
b111110 -!
b101011 .!
b111110 )
0F
b101011 ,!
b101100 0!
b111010 /!
b101011 '
1V
#920
0.
0N
0~
#930
1.
1N
1~
0e
1d
0`
0_
b111010 -!
b101100 .!
b111010 )
0D
b101100 ,!
b101101 0!
b111011 /!
b101100 '
0V
0U
1T
#940
0.
0N
0~
#945
1<
1j
1i
b100 z
b110 y
b111010 H
b111101 G
b111101 ,
0s
1q
#950
1.
1N
1~
1e
0d
1_
b111011 -!
b101101 .!
b111011 )
1F
b101101 ,!
b101110 0!
b111001 /!
b101101 '
1V
#960
0.
0N
0~
#970
1.
1N
1~
0e
1c
0b
b111001 -!
b101110 .!
b111001 )
0E
b101110 ,!
b101111 0!
b111000 /!
b101110 '
0V
1U
#980
0<
0j
0.
0N
0~
#990
1.
1N
1~
1e
1d
1a
1`
0_
b111000 -!
b101111 .!
b111000 )
0F
b101111 ,!
b110000 0!
b101000 /!
b101111 '
1V
#1000
0.
0N
0~
#1010
1.
1N
1~
1f
0e
0d
0c
0a
b101000 -!
b110000 .!
b101000 )
0B
b110000 ,!
b110001 0!
b101001 /!
b110000 '
0V
0U
0T
0S
1R
#1015
1<
1j
0i
b11 z
b10 y
b110 w
b100 x
b101000 H
b111010 G
b111010 ,
b110 *
16
0t
1s
0r
b100 v
b100 z
b110 y
b100 (
0^
0]
1\
b10110100 g
#1020
0.
0N
0~
#1030
1.
1N
1~
1e
1c
1a
1_
b101001 -!
b110001 .!
b110 :
b101001 )
1F
b110001 ,!
b110010 0!
b101011 /!
b110001 '
1V
#1040
0.
0N
0~
#1050
0<
0j
1.
1N
1~
0f
0c
1b
0`
b101011 -!
b110010 .!
b110 9
b110 +
b101011 )
1E
1(!
b110010 ,!
b110011 0!
b101010 /!
b110010 '
0V
1U
#1060
0.
0N
0~
#1070
1.
1N
1~
1f
1d
0b
1`
b101010 -!
b110011 .!
b101010 )
0F
b110011 ,!
b110100 0!
b101110 /!
b110011 '
1V
#1080
0.
0N
0~
#1085
1<
1j
b101010 H
b101000 G
b101000 ,
0s
0p
#1090
1.
1N
1~
0f
1c
1b
0a
0`
b101110 -!
b110100 .!
b101110 )
1D
b110100 ,!
b110101 0!
b101111 /!
b110100 '
0V
0U
1T
#1100
0.
0N
0~
#1110
1.
1N
1~
0e
0d
0b
1a
1`
b101111 -!
b110101 .!
b101111 )
1F
b110101 ,!
b110110 0!
b101101 /!
b110101 '
1V
#1120
0<
0j
0.
0N
0~
#1130
1.
1N
1~
1f
1e
0c
0a
b101101 -!
b110110 .!
b101101 )
0E
b110110 ,!
b110111 0!
b101100 /!
b110110 '
0V
1U
#1140
0.
0N
0~
#1150
1.
1N
1~
0f
0e
1d
0_
b101100 -!
b110111 .!
b101100 )
0F
b110111 ,!
b111000 0!
b100100 /!
b110111 '
1V
#1155
1<
1j
1i
b101 z
b111 y
b101100 H
b101010 G
b101010 ,
1s
#1160
0.
0N
0~
#1170
1.
1N
1~
1f
1e
1b
1a
0`
1_
b100100 -!
b111000 .!
b100100 )
0C
b111000 ,!
b111001 0!
b100101 /!
b111000 '
0V
0U
0T
1S
#1180
0.
0N
0~
#1190
0<
0j
1.
1N
1~
0a
0_
b100101 -!
b111001 .!
b100101 )
1F
b111001 ,!
b111010 0!
b100111 /!
b111001 '
1V
#1200
0.
0N
0~
#1210
1.
1N
1~
0f
1c
1_
b100111 -!
b111010 .!
b100111 )
1E
b111010 ,!
b111011 0!
b100110 /!
b111010 '
0V
1U
#1220
0.
0N
0~
#1225
1<
1j
0i
b100 z
b110 y
b111 w
b101 x
b100111 H
b101100 G
b101100 ,
b111 *
18
0s
1r
b101 v
b101 z
b111 y
b101 (
1^
b10000 g
#1230
1.
1N
1~
0e
0b
1a
1`
0_
b100110 -!
b111011 .!
b111 :
b100110 )
0F
b111011 ,!
b111100 0!
b100010 /!
b111011 '
1V
#1240
0.
0N
0~
#1250
1.
1N
1~
0d
0a
0`
b100010 -!
b111100 .!
b111 9
b111 +
b100010 )
0D
1*!
b111100 ,!
b111101 0!
b100011 /!
b111100 '
0V
0U
1T
#1260
0<
0j
0.
0N
0~
#1270
1.
1N
1~
1e
1`
b100011 -!
b111101 .!
b100011 )
1F
b111101 ,!
b111110 0!
b100001 /!
b111101 '
1V
#1280
0.
0N
0~
#1290
1.
1N
1~
0e
1d
0c
1b
1a
0`
b100001 -!
b111110 .!
b100001 )
0E
b111110 ,!
b111111 0!
b100000 /!
b111110 '
0V
1U
#1295
1<
1j
b100001 H
b100111 G
b100111 ,
1t
1s
0q
#1300
0.
0N
0~
#1310
1.
1N
1~
1f
0d
0b
0a
1_
b100000 -!
b111111 .!
b100000 )
0F
b111111 ,!
b1000000 0!
b1100000 /!
b111111 '
1V
#1320
0.
0N
0~
#1330
0<
0j
1.
1N
1~
0f
1e
1b
1`
0_
b1100000 -!
b1000000 .!
b1100000 )
1@
b1000000 ,!
b1000001 0!
b1100001 /!
b1000000 '
0V
0U
0T
0S
0R
0Q
1P
#1340
0.
0N
0~
#1350
1.
1N
1~
1f
1d
1c
1_
b1100001 -!
b1000001 .!
b1100001 )
1F
b1000001 ,!
b1000010 0!
b1100011 /!
b1000001 '
1V
#1360
0.
0N
0~
#1365
1<
1j
1i
b110 z
b101 y
b1100001 H
b100001 G
b100001 ,
0s
0r
#1370
1.
1N
1~
0f
0e
0c
b1100011 -!
b1000010 .!
b1100011 )
1E
b1000010 ,!
b1000011 0!
b1100010 /!
b1000010 '
0V
1U
#1380
0.
0N
0~
#1390
1.
1N
1~
1e
0b
1a
0`
0_
b1100010 -!
b1000011 .!
b1100010 )
0F
b1000011 ,!
b1000100 0!
b1100110 /!
b1000011 '
1V
#1400
0<
0j
0.
0N
0~
#1410
1.
1N
1~
0d
1c
0a
1_
b1100110 -!
b1000100 .!
b1100110 )
1D
b1000100 ,!
b1000101 0!
b1100111 /!
b1000100 '
0V
0U
1T
#1420
0.
0N
0~
#1430
1.
1N
1~
1f
1d
0c
1b
1a
0_
b1100111 -!
b1000101 .!
b1100111 )
1F
b1000101 ,!
b1000110 0!
b1100101 /!
b1000101 '
1V
#1435
1<
1j
0i
b101 z
b111 y
b101 w
b110 x
b1100111 H
b1100001 G
b1100001 ,
b101 *
07
1n
b110 v
b110 z
b101 y
b110 (
0^
1]
b10100010 g
#1440
0.
0N
0~
#1450
1.
1N
1~
0a
1`
b1100101 -!
b1000110 .!
b101 :
b1100101 )
0E
b1000110 ,!
b1000111 0!
b1100100 /!
b1000110 '
0V
1U
#1460
0.
0N
0~
#1470
0<
0j
1.
1N
1~
0e
0d
0b
1a
0`
1_
b1100100 -!
b1000111 .!
b101 9
b101 +
b1100100 )
0F
0)!
b1000111 ,!
b1001000 0!
b1101100 /!
b1000111 '
1V
#1480
0.
0N
0~
#1490
1.
1N
1~
1e
1b
0a
b1101100 -!
b1001000 .!
b1101100 )
1C
b1001000 ,!
b1001001 0!
b1101101 /!
b1001000 '
0V
0U
0T
1S
#1500
0.
0N
0~
#1505
1<
1j
b1101100 H
b1100111 G
b1100111 ,
1s
1r
#1510
1.
1N
1~
0f
0b
0_
b1101101 -!
b1001001 .!
b1101101 )
1F
b1001001 ,!
b1001010 0!
b1101111 /!
b1001001 '
1V
#1520
0.
0N
0~
#1530
1.
1N
1~
0e
1d
1b
1a
1_
b1101111 -!
b1001010 .!
b1101111 )
1E
b1001010 ,!
b1001011 0!
b1101110 /!
b1001010 '
0V
1U
#1540
0<
0j
0.
0N
0~
#1550
1.
1N
1~
1e
0d
0a
1`
b1101110 -!
b1001011 .!
b1101110 )
0F
b1001011 ,!
b1001100 0!
b1101010 /!
b1001011 '
1V
#1560
0.
0N
0~
#1570
1.
1N
1~
1f
0e
1c
0b
0_
b1101010 -!
b1001100 .!
b1101010 )
0D
b1001100 ,!
b1001101 0!
b1101011 /!
b1001100 '
0V
0U
1T
#1575
1<
1j
1i
b111 z
b100 y
b1101010 H
b1101100 G
b1101100 ,
0t
0s
1q
#1580
0.
0N
0~
#1590
1.
1N
1~
1d
1b
1a
0`
1_
b1101011 -!
b1001101 .!
b1101011 )
1F
b1001101 ,!
b1001110 0!
b1101001 /!
b1001101 '
1V
#1600
0.
0N
0~
#1610
0<
0j
1.
1N
1~
0f
0a
1`
b1101001 -!
b1001110 .!
b1101001 )
0E
b1001110 ,!
b1001111 0!
b1101000 /!
b1001110 '
0V
1U
#1620
0.
0N
0~
#1630
1.
1N
1~
0d
0b
0`
b1101000 -!
b1001111 .!
b1101000 )
0F
b1001111 ,!
b1010000 0!
b1111000 /!
b1001111 '
1V
#1640
0.
0N
0~
#1645
1<
1j
0i
b110 z
b101 y
b100 w
b111 x
b1101000 H
b1101010 G
b1101010 ,
b100 *
08
1s
0r
b111 v
b111 z
b100 y
b111 (
1^
b1101000 g
#1650
1.
1N
1~
1e
1d
0c
1b
0_
b1111000 -!
b1010000 .!
b100 :
b1111000 )
1B
b1010000 ,!
b1010001 0!
b1111001 /!
b1010000 '
0V
0U
0T
0S
1R
#1660
0.
0N
0~
#1670
1.
1N
1~
1f
1c
1a
1`
1_
b1111001 -!
b1010001 .!
b100 9
b100 +
b1111001 )
1F
0*!
b1010001 ,!
b1010010 0!
b1111011 /!
b1010001 '
1V
#1680
0<
0j
0.
0N
0~
#1690
1.
1N
1~
0e
0d
0c
0b
0a
0`
0_
b1111011 -!
b1010010 .!
b1111011 )
1E
b1010010 ,!
b1010011 0!
b1111010 /!
b1010010 '
0V
1U
#1700
0.
0N
0~
#1710
1.
1N
1~
1e
1b
1`
1_
b1111010 -!
b1010011 .!
b1111010 )
0F
b1010011 ,!
b1010100 0!
b1111110 /!
b1010011 '
1V
#1715
1<
1j
b1111010 H
b1101000 G
b1101000 ,
0s
#1720
0.
0N
0~
#1730
1.
1N
1~
0e
0b
1a
0`
0_
b1111110 -!
b1010100 .!
b1111110 )
1D
b1010100 ,!
b1010101 0!
b1111111 /!
b1010100 '
0V
0U
1T
#1740
0.
0N
0~
#1750
0<
0j
1.
1N
1~
0f
1e
1b
b1111111 -!
b1010101 .!
b1111111 )
1F
b1010101 ,!
b1010110 0!
b1111101 /!
b1010101 '
1V
#1760
0.
0N
0~
#1770
1.
1N
1~
1f
1c
0b
0a
1`
b1111101 -!
b1010110 .!
b1111101 )
0E
b1010110 ,!
b1010111 0!
b1111100 /!
b1010110 '
0V
1U
#1780
0.
0N
0~
#1785
1<
1j
1i
b1000 z
b1100 y
b1111101 H
b1111010 G
b1111010 ,
1s
1p
#1790
1.
1N
1~
0e
1b
1a
0`
1_
b1111100 -!
b1010111 .!
b1111100 )
0F
b1010111 ,!
b1011000 0!
b1110100 /!
b1010111 '
1V
#1800
0.
0N
0~
#1810
1.
1N
1~
0f
1e
0c
0b
1`
b1110100 -!
b1011000 .!
b1110100 )
0C
b1011000 ,!
b1011001 0!
b1110101 /!
b1011000 '
0V
0U
0T
1S
#1820
0<
0j
0.
0N
0~
#1830
1.
1N
1~
1c
1b
0`
0_
b1110101 -!
b1011001 .!
b1110101 )
1F
b1011001 ,!
b1011010 0!
b1110111 /!
b1011001 '
1V
#1840
0.
0N
0~
#1850
1.
1N
1~
1f
0e
0c
1`
b1110111 -!
b1011010 .!
b1110111 )
1E
b1011010 ,!
b1011011 0!
b1110110 /!
b1011010 '
0V
1U
#1855
1<
1j
0i
b111 z
b100 y
b1100 w
b1000 x
b1110111 H
b1111101 G
b1111101 ,
b1100 *
15
1t
0s
1r
b1000 v
b1000 z
b1100 y
b1000 (
0^
0]
0\
1[
b11011110 g
#1860
0.
0N
0~
#1870
1.
1N
1~
1e
1c
0b
0a
b1110110 -!
b1011011 .!
b1100 :
b1110110 )
0F
b1011011 ,!
b1011100 0!
b1110010 /!
b1011011 '
1V
#1880
0.
0N
0~
#1890
0<
0j
1.
1N
1~
0f
0e
0c
1b
0`
b1110010 -!
b1011100 .!
b1100 9
b1100 +
b1110010 )
0D
1'!
b1011100 ,!
b1011101 0!
b1110011 /!
b1011100 '
0V
0U
1T
#1900
0.
0N
0~
#1910
1.
1N
1~
1f
1_
b1110011 -!
b1011101 .!
b1110011 )
1F
b1011101 ,!
b1011110 0!
b1110001 /!
b1011101 '
1V
#1920
0.
0N
0~
#1925
1<
1j
b1110011 H
b1110111 G
b1110111 ,
1s
0q
#1930
1.
1N
1~
1c
1a
0_
b1110001 -!
b1011110 .!
b1110001 )
0E
b1011110 ,!
b1011111 0!
b1110000 /!
b1011110 '
0V
1U
#1940
0.
0N
0~
#1950
1.
1N
1~
1d
0a
b1110000 -!
b1011111 .!
b1110000 )
0F
b1011111 ,!
b1100000 0!
b1010000 /!
b1011111 '
1V
#1960
0<
0j
0.
0N
0~
#1970
1.
1N
1~
0f
1e
0b
1a
b1010000 -!
b1100000 .!
b1010000 )
0A
b1100000 ,!
b1100001 0!
b1010001 /!
b1100000 '
0V
0U
0T
0S
0R
1Q
#1980
0.
0N
0~
#1990
1.
1N
1~
1f
0e
0d
0c
1_
b1010001 -!
b1100001 .!
b1010001 )
1F
b1100001 ,!
b1100010 0!
b1010011 /!
b1100001 '
1V
#1995
1<
1j
1i
b1001 z
b1101 y
b1010001 H
b1110011 G
b1110011 ,
0r
#2000
0.
0N
0~
#2010
1.
1N
1~
1e
1c
0_
b1010011 -!
b1100010 .!
b1010011 )
1E
b1100010 ,!
b1100011 0!
b1010010 /!
b1100010 '
0V
1U
#2020
0.
0N
0~
#2030
0<
0j
1.
1N
1~
0f
1d
1_
b1010010 -!
b1100011 .!
b1010010 )
0F
b1100011 ,!
b1100100 0!
b1010110 /!
b1100011 '
1V
#2040
0.
0N
0~
#2050
1.
1N
1~
1f
0c
1b
1`
b1010110 -!
b1100100 .!
b1010110 )
1D
b1100100 ,!
b1100101 0!
b1010111 /!
b1100100 '
0V
0U
1T
#2060
0.
0N
0~
#2065
1<
1j
0i
b1000 z
b1100 y
b1101 w
b1001 x
b1010110 H
b1010001 G
b1010001 ,
b1101 *
18
0s
0o
b1001 v
b1001 z
b1101 y
b1001 (
1^
b1101011 g
#2070
1.
1N
1~
b1010111 -!
b1100101 .!
b1101 :
b1010111 )
1F
b1100101 ,!
b1100110 0!
b1010101 /!
b1100101 '
1V
#2080
0.
0N
0~
#2090
1.
1N
1~
b1010101 -!
b1100110 .!
b1101 9
b1101 +
b1010101 )
0E
1*!
b1100110 ,!
b1100111 0!
b1010100 /!
b1100110 '
0V
1U
#2100
0<
0j
0.
0N
0~
#2110
1.
1N
1~
b1010100 -!
b1100111 .!
b1010100 )
0F
b1100111 ,!
b1101000 0!
b1011100 /!
b1100111 '
1V
#2120
0.
0N
0~
#2130
1.
1N
1~
b1011100 -!
b1101000 .!
b1011100 )
1C
b1101000 ,!
b1101001 0!
b1011101 /!
b1101000 '
0V
0U
0T
1S
